nohup: ignoring input
[DEPRECATION WARNING]: The use of 'include' for tasks has been deprecated. Use 
'import_tasks' for static inclusions or 'include_tasks' for dynamic inclusions.
 This feature will be removed in a future release. Deprecation warnings can be 
disabled by setting deprecation_warnings=False in ansible.cfg.
[DEPRECATION WARNING]: include is kept for backwards compatibility but usage is
 discouraged. The module documentation details page may explain more about this
 rationale.. This feature will be removed in a future release. Deprecation 
warnings can be disabled by setting deprecation_warnings=False in ansible.cfg.
[DEPRECATION WARNING]: The use of 'static' has been deprecated. Use 
'import_tasks' for static inclusion, or 'include_tasks' for dynamic inclusion. 
This feature will be removed in a future release. Deprecation warnings can be 
disabled by setting deprecation_warnings=False in ansible.cfg.
 [WARNING]: While constructing a mapping from /home/ansible/hebb/gjawaharani
/he-provisioner-21.1/third-party/ansible-oracle/roles/orahost/tasks/main.yml,
line 6, column 7, found a duplicate dict key (that). Using last defined value
only.
[DEPRECATION WARNING]: The comma separated role spec format, use the 
yaml/explicit format instead. Line that trigger this: he-win-config-c-drive,. 
This feature will be removed in version 2.7. Deprecation warnings can be 
disabled by setting deprecation_warnings=False in ansible.cfg.

PLAY [Configure environments-config repository] ********************************

TASK [Gathering Facts] *********************************************************
Tuesday 26 January 2021  16:13:19 -0500 (0:00:00.341)       0:00:00.341 ******* 
ok: [localhost]

TASK [Create temporary directory for storing environments-config repository contents] ***
Tuesday 26 January 2021  16:13:26 -0500 (0:00:06.796)       0:00:07.138 ******* 
changed: [localhost]

TASK [Get the environments-config repository contents under /tmp/envs-config-j3SDnc from Bitbucket] ***
Tuesday 26 January 2021  16:13:27 -0500 (0:00:00.390)       0:00:07.529 ******* 
changed: [localhost]

TASK [Set environments-config path for localhost] ******************************
Tuesday 26 January 2021  16:13:30 -0500 (0:00:03.209)       0:00:10.738 ******* 
ok: [localhost]

PLAY [Set environments-config vars path] ***************************************

TASK [Set environments-config vars path for all hosts] *************************
Tuesday 26 January 2021  16:13:30 -0500 (0:00:00.041)       0:00:10.780 ******* 
ok: [avm-ora-pp002]
ok: [avm-ora-pp001]
ok: [avm-wl-pp11.healthedge.biz]
 [WARNING]: Could not match supplied host pattern, ignoring: windows-servers

PLAY [Load up meta-data and ansible password for windows] **********************
skipping: no hosts matched

PLAY [Make sure servers are up] ************************************************

TASK [Wait for hosts] **********************************************************
Tuesday 26 January 2021  16:13:30 -0500 (0:00:00.202)       0:00:10.983 ******* 
ok: [avm-wl-pp11.healthedge.biz]
ok: [avm-ora-pp001]
ok: [avm-ora-pp002]

TASK [Main he-load-metadata] ***************************************************
Tuesday 26 January 2021  16:13:33 -0500 (0:00:02.577)       0:00:13.560 ******* 

TASK [he-load-metadata : Do we have a override file for this environment?] *****
Tuesday 26 January 2021  16:13:33 -0500 (0:00:00.085)       0:00:13.645 ******* 
ok: [avm-ora-pp001 -> localhost]
ok: [avm-wl-pp11.healthedge.biz -> localhost]
ok: [avm-ora-pp002 -> localhost]

TASK [he-load-metadata : Test environment override file] ***********************
Tuesday 26 January 2021  16:13:34 -0500 (0:00:01.348)       0:00:14.993 ******* 
skipping: [avm-ora-pp001]
skipping: [avm-ora-pp002]
skipping: [avm-wl-pp11.healthedge.biz]

TASK [he-load-metadata : Include_vars environment overrides file] **************
Tuesday 26 January 2021  16:13:34 -0500 (0:00:00.052)       0:00:15.046 ******* 
ok: [avm-ora-pp001 -> localhost]
ok: [avm-ora-pp002 -> localhost]
ok: [avm-wl-pp11.healthedge.biz -> localhost]

TASK [he-load-metadata : Do we have a default customer.yml for this customer?] ***
Tuesday 26 January 2021  16:13:34 -0500 (0:00:00.078)       0:00:15.124 ******* 
ok: [avm-wl-pp11.healthedge.biz -> localhost]
ok: [avm-ora-pp001 -> localhost]
ok: [avm-ora-pp002 -> localhost]

TASK [he-load-metadata : Test customer.yml] ************************************
Tuesday 26 January 2021  16:13:35 -0500 (0:00:01.183)       0:00:16.307 ******* 
skipping: [avm-ora-pp001]
skipping: [avm-ora-pp002]
skipping: [avm-wl-pp11.healthedge.biz]

TASK [he-load-metadata : Include_vars customer.yml] ****************************
Tuesday 26 January 2021  16:13:35 -0500 (0:00:00.047)       0:00:16.355 ******* 
ok: [avm-ora-pp001 -> localhost]
ok: [avm-wl-pp11.healthedge.biz -> localhost]
ok: [avm-ora-pp002 -> localhost]

TASK [he-load-metadata : Do we have an SLA-specific customer-<SLA>.yml for this customer?] ***
Tuesday 26 January 2021  16:13:36 -0500 (0:00:00.135)       0:00:16.491 ******* 
ok: [avm-ora-pp002 -> localhost]
ok: [avm-ora-pp001 -> localhost]
ok: [avm-wl-pp11.healthedge.biz -> localhost]

TASK [he-load-metadata : Include SLA-Specific customer.yml] ********************
Tuesday 26 January 2021  16:13:36 -0500 (0:00:00.370)       0:00:16.861 ******* 
skipping: [avm-ora-pp001]
skipping: [avm-ora-pp002]
skipping: [avm-wl-pp11.healthedge.biz]

TASK [he-load-metadata : load environments-config vars] ************************
Tuesday 26 January 2021  16:13:36 -0500 (0:00:00.061)       0:00:16.923 ******* 
included: /home/ansible/hebb/gjawaharani/he-provisioner-21.1/common/roles/he-load-metadata/tasks/environments-config.yml for avm-ora-pp002, avm-ora-pp001, avm-wl-pp11.healthedge.biz

TASK [he-load-metadata : include environments-config vars] *********************
Tuesday 26 January 2021  16:13:36 -0500 (0:00:00.102)       0:00:17.025 ******* 
ok: [avm-ora-pp002 -> localhost]
ok: [avm-ora-pp001 -> localhost]
ok: [avm-wl-pp11.healthedge.biz -> localhost]

TASK [he-load-metadata : Do we have a diff-by-sla file for this SLA?] **********
Tuesday 26 January 2021  16:13:36 -0500 (0:00:00.177)       0:00:17.203 ******* 
ok: [avm-ora-pp002 -> localhost]
ok: [avm-ora-pp001 -> localhost]
ok: [avm-wl-pp11.healthedge.biz -> localhost]

TASK [he-load-metadata : Include default diff-by-sla meta-data] ****************
Tuesday 26 January 2021  16:13:37 -0500 (0:00:00.514)       0:00:17.717 ******* 
ok: [avm-ora-pp001 -> localhost]
ok: [avm-ora-pp002 -> localhost]
ok: [avm-wl-pp11.healthedge.biz -> localhost]

TASK [he-load-metadata : Include SLA-specific diff-by-sla meta-data] ***********
Tuesday 26 January 2021  16:13:37 -0500 (0:00:00.104)       0:00:17.822 ******* 
skipping: [avm-ora-pp001]
skipping: [avm-ora-pp002]
skipping: [avm-wl-pp11.healthedge.biz]

TASK [he-load-metadata : Do we have a defaults.yml in the metadata locale ?] ***
Tuesday 26 January 2021  16:13:37 -0500 (0:00:00.068)       0:00:17.891 ******* 
ok: [avm-wl-pp11.healthedge.biz -> localhost]
ok: [avm-ora-pp001 -> localhost]
ok: [avm-ora-pp002 -> localhost]

TASK [he-load-metadata : Include metadata defaults.yml] ************************
Tuesday 26 January 2021  16:13:38 -0500 (0:00:01.246)       0:00:19.137 ******* 
 [WARNING]: While constructing a mapping from True, line 4, column 1, found a
duplicate dict key (caremanager_template_name). Using last defined value only.
ok: [avm-ora-pp001 -> localhost]
 [WARNING]: While constructing a mapping from True, line 4, column 1, found a
duplicate dict key (caremanager_template_name). Using last defined value only.
ok: [avm-ora-pp002 -> localhost]
 [WARNING]: While constructing a mapping from True, line 4, column 1, found a
duplicate dict key (caremanager_template_name). Using last defined value only.
ok: [avm-wl-pp11.healthedge.biz -> localhost]

TASK [he-load-metadata : Include_vars environment overrides file to key into provisioner region] ***
Tuesday 26 January 2021  16:13:38 -0500 (0:00:00.091)       0:00:19.229 ******* 
ok: [avm-ora-pp001 -> localhost]
ok: [avm-ora-pp002 -> localhost]
ok: [avm-wl-pp11.healthedge.biz -> localhost]

TASK [he-load-metadata : Include Provisioner-region metadata] ******************
Tuesday 26 January 2021  16:13:38 -0500 (0:00:00.076)       0:00:19.305 ******* 
ok: [avm-ora-pp001 -> localhost]
ok: [avm-ora-pp002 -> localhost]
ok: [avm-wl-pp11.healthedge.biz -> localhost]

TASK [he-load-metadata : load shared secrets] **********************************
Tuesday 26 January 2021  16:13:38 -0500 (0:00:00.084)       0:00:19.390 ******* 
included: /home/ansible/hebb/gjawaharani/he-provisioner-21.1/common/roles/he-load-metadata/tasks/secrets-shared.yml for avm-ora-pp001, avm-ora-pp002, avm-wl-pp11.healthedge.biz

TASK [he-load-metadata : get shared-secrets variables] *************************
Tuesday 26 January 2021  16:13:39 -0500 (0:00:00.125)       0:00:19.515 ******* 
ok: [avm-ora-pp001 -> localhost]
ok: [avm-ora-pp002 -> localhost]
ok: [avm-wl-pp11.healthedge.biz -> localhost]

TASK [he-load-metadata : include_vars for role, environment override, and secrets files] ***
Tuesday 26 January 2021  16:13:39 -0500 (0:00:00.076)       0:00:19.592 ******* 
 [WARNING]: The loop variable 'item' is already in use. You should set the
`loop_var` value in the `loop_control` option for the task to something else to
avoid variable collisions and unexpected behavior.
 [WARNING]: The loop variable 'item' is already in use. You should set the
`loop_var` value in the `loop_control` option for the task to something else to
avoid variable collisions and unexpected behavior.
 [WARNING]: The loop variable 'item' is already in use. You should set the
`loop_var` value in the `loop_control` option for the task to something else to
avoid variable collisions and unexpected behavior.
ok: [avm-ora-pp001 -> localhost] => (item=/home/ansible/hebb/gjawaharani/environments-customer/Avmed/preprod-caprun/override)
ok: [avm-ora-pp001 -> localhost] => (item=~/secrets/secrets.yml)
ok: [avm-ora-pp001 -> localhost] => (item=~/secrets/secrets-vra.yml)
ok: [avm-wl-pp11.healthedge.biz -> localhost] => (item=/home/ansible/hebb/gjawaharani/environments-customer/Avmed/preprod-caprun/override)
ok: [avm-ora-pp002 -> localhost] => (item=/home/ansible/hebb/gjawaharani/environments-customer/Avmed/preprod-caprun/override)
ok: [avm-wl-pp11.healthedge.biz -> localhost] => (item=~/secrets/secrets.yml)
ok: [avm-wl-pp11.healthedge.biz -> localhost] => (item=~/secrets/secrets-vra.yml)
ok: [avm-ora-pp002 -> localhost] => (item=~/secrets/secrets.yml)
ok: [avm-ora-pp002 -> localhost] => (item=~/secrets/secrets-vra.yml)

TASK [he-load-metadata : do we have region specific secrets for this provisioner?] ***
Tuesday 26 January 2021  16:13:39 -0500 (0:00:00.174)       0:00:19.766 ******* 
ok: [avm-ora-pp001 -> localhost]
ok: [avm-wl-pp11.healthedge.biz -> localhost]
ok: [avm-ora-pp002 -> localhost]

TASK [he-load-metadata : include region specific secrets file] *****************
Tuesday 26 January 2021  16:13:39 -0500 (0:00:00.380)       0:00:20.147 ******* 
skipping: [avm-ora-pp001]
skipping: [avm-ora-pp002]
skipping: [avm-wl-pp11.healthedge.biz]

TASK [he-load-metadata : do we have generic customer secrets file?] ************
Tuesday 26 January 2021  16:13:39 -0500 (0:00:00.051)       0:00:20.199 ******* 
ok: [avm-wl-pp11.healthedge.biz -> localhost]
ok: [avm-ora-pp002 -> localhost]
ok: [avm-ora-pp001 -> localhost]

TASK [he-load-metadata : include generic customer secrets file] ****************
Tuesday 26 January 2021  16:13:40 -0500 (0:00:01.255)       0:00:21.454 ******* 
ok: [avm-ora-pp001 -> localhost]
ok: [avm-ora-pp002 -> localhost]
ok: [avm-wl-pp11.healthedge.biz -> localhost]

TASK [he-load-metadata : load customer-environment secrets] ********************
Tuesday 26 January 2021  16:13:41 -0500 (0:00:00.074)       0:00:21.528 ******* 
included: /home/ansible/hebb/gjawaharani/he-provisioner-21.1/common/roles/he-load-metadata/tasks/secrets-customer-environment.yml for avm-ora-pp001, avm-ora-pp002, avm-wl-pp11.healthedge.biz

TASK [he-load-metadata : do we have customer-environment specific secrets?] ****
Tuesday 26 January 2021  16:13:41 -0500 (0:00:00.142)       0:00:21.671 ******* 
ok: [avm-ora-pp002 -> localhost]
ok: [avm-ora-pp001 -> localhost]
ok: [avm-wl-pp11.healthedge.biz -> localhost]

TASK [he-load-metadata : include customer-environment specific secrets] ********
Tuesday 26 January 2021  16:13:41 -0500 (0:00:00.366)       0:00:22.038 ******* 
skipping: [avm-ora-pp001]
skipping: [avm-ora-pp002]
skipping: [avm-wl-pp11.healthedge.biz]

TASK [he-load-metadata : Include_vars environment overrides file one last time to catch overrides] ***
Tuesday 26 January 2021  16:13:41 -0500 (0:00:00.056)       0:00:22.094 ******* 
ok: [avm-ora-pp001 -> localhost]
ok: [avm-ora-pp002 -> localhost]
ok: [avm-wl-pp11.healthedge.biz -> localhost]

TASK [he-load-metadata : Do we have a default customer.yml for this customer?] ***
Tuesday 26 January 2021  16:13:41 -0500 (0:00:00.073)       0:00:22.167 ******* 
ok: [avm-ora-pp001 -> localhost]
ok: [avm-wl-pp11.healthedge.biz -> localhost]
ok: [avm-ora-pp002 -> localhost]

TASK [he-load-metadata : Test customer.yml] ************************************
Tuesday 26 January 2021  16:13:42 -0500 (0:00:01.199)       0:00:23.367 ******* 
skipping: [avm-ora-pp001]
skipping: [avm-ora-pp002]
skipping: [avm-wl-pp11.healthedge.biz]

TASK [he-load-metadata : Include_vars customer.yml] ****************************
Tuesday 26 January 2021  16:13:42 -0500 (0:00:00.050)       0:00:23.418 ******* 
ok: [avm-ora-pp001 -> localhost]
ok: [avm-ora-pp002 -> localhost]
ok: [avm-wl-pp11.healthedge.biz -> localhost]

TASK [he-load-metadata : Do we have an SLA-specific customer-<SLA>.yml for this customer?] ***
Tuesday 26 January 2021  16:13:43 -0500 (0:00:00.074)       0:00:23.493 ******* 
ok: [avm-ora-pp002 -> localhost]
ok: [avm-ora-pp001 -> localhost]
ok: [avm-wl-pp11.healthedge.biz -> localhost]

TASK [he-load-metadata : Include SLA-Specific customer.yml] ********************
Tuesday 26 January 2021  16:13:43 -0500 (0:00:00.394)       0:00:23.888 ******* 
skipping: [avm-ora-pp001]
skipping: [avm-ora-pp002]
skipping: [avm-wl-pp11.healthedge.biz]

TASK [he-load-metadata : Include_vars environment overrides file one last time to catch overrides] ***
Tuesday 26 January 2021  16:13:43 -0500 (0:00:00.058)       0:00:23.946 ******* 
ok: [avm-ora-pp001 -> localhost]
ok: [avm-ora-pp002 -> localhost]
ok: [avm-wl-pp11.healthedge.biz -> localhost]

PLAY [Create OS specific groups] ***********************************************

TASK [Gathering Facts] *********************************************************
Tuesday 26 January 2021  16:13:43 -0500 (0:00:00.077)       0:00:24.024 ******* 
ok: [avm-wl-pp11.healthedge.biz]
ok: [avm-ora-pp001]
ok: [avm-ora-pp002]

TASK [Create OS based groups] **************************************************
Tuesday 26 January 2021  16:13:47 -0500 (0:00:03.526)       0:00:27.551 ******* 
ok: [avm-ora-pp001]
ok: [avm-wl-pp11.healthedge.biz]
ok: [avm-ora-pp002]

PLAY [Configure CentOS] ********************************************************

TASK [he-run-level : Get systemctl default] ************************************
Tuesday 26 January 2021  16:13:47 -0500 (0:00:00.119)       0:00:27.670 ******* 
ok: [avm-wl-pp11.healthedge.biz]
ok: [avm-ora-pp002]
ok: [avm-ora-pp001]

TASK [he-run-level : Switch to requested systemctl default] ********************
Tuesday 26 January 2021  16:13:47 -0500 (0:00:00.645)       0:00:28.315 ******* 
skipping: [avm-wl-pp11.healthedge.biz]
changed: [avm-ora-pp001]
changed: [avm-ora-pp002]

TASK [he-run-level : Is graphical currently active?] ***************************
Tuesday 26 January 2021  16:13:51 -0500 (0:00:03.927)       0:00:32.242 ******* 
ok: [avm-wl-pp11.healthedge.biz]
ok: [avm-ora-pp001]
ok: [avm-ora-pp002]

TASK [he-run-level : Switch to graphical] **************************************
Tuesday 26 January 2021  16:13:55 -0500 (0:00:03.285)       0:00:35.528 ******* 
skipping: [avm-wl-pp11.healthedge.biz]
changed: [avm-ora-pp001]
changed: [avm-ora-pp002]

TASK [he-run-level : Is multi-user currently active?] **************************
Tuesday 26 January 2021  16:13:58 -0500 (0:00:03.036)       0:00:38.565 ******* 
skipping: [avm-ora-pp001]
skipping: [avm-ora-pp002]
ok: [avm-wl-pp11.healthedge.biz]

TASK [he-run-level : Switch to multi-user] *************************************
Tuesday 26 January 2021  16:13:58 -0500 (0:00:00.309)       0:00:38.874 ******* 
skipping: [avm-ora-pp001]
skipping: [avm-wl-pp11.healthedge.biz]
skipping: [avm-ora-pp002]

TASK [he-swap-disk : AWS: Put swap in fstab] ***********************************
Tuesday 26 January 2021  16:13:58 -0500 (0:00:00.057)       0:00:38.932 ******* 
skipping: [avm-ora-pp001]
skipping: [avm-wl-pp11.healthedge.biz]
skipping: [avm-ora-pp002]

TASK [he-swap-disk : AWS: Enable swap] *****************************************
Tuesday 26 January 2021  16:13:58 -0500 (0:00:00.057)       0:00:38.990 ******* 
skipping: [avm-ora-pp001]
skipping: [avm-wl-pp11.healthedge.biz]
skipping: [avm-ora-pp002]

TASK [he-swap-disk : Get list of current swap parition] ************************
Tuesday 26 January 2021  16:13:58 -0500 (0:00:00.057)       0:00:39.047 ******* 
skipping: [avm-ora-pp001]
skipping: [avm-wl-pp11.healthedge.biz]
skipping: [avm-ora-pp002]

TASK [he-swap-disk : debug] ****************************************************
Tuesday 26 January 2021  16:13:58 -0500 (0:00:00.068)       0:00:39.116 ******* 
skipping: [avm-ora-pp001]
skipping: [avm-wl-pp11.healthedge.biz]
skipping: [avm-ora-pp002]

TASK [he-swap-disk : Disable existing swap disk] *******************************
Tuesday 26 January 2021  16:13:58 -0500 (0:00:00.062)       0:00:39.179 ******* 
skipping: [avm-ora-pp001]
skipping: [avm-wl-pp11.healthedge.biz]
skipping: [avm-ora-pp002]

TASK [he-swap-disk : debug] ****************************************************
Tuesday 26 January 2021  16:13:58 -0500 (0:00:00.065)       0:00:39.245 ******* 
skipping: [avm-ora-pp001]
skipping: [avm-wl-pp11.healthedge.biz]
skipping: [avm-ora-pp002]

TASK [he-swap-disk : Get swapon status] ****************************************
Tuesday 26 January 2021  16:13:58 -0500 (0:00:00.064)       0:00:39.309 ******* 
skipping: [avm-ora-pp001]
skipping: [avm-wl-pp11.healthedge.biz]
skipping: [avm-ora-pp002]

TASK [he-swap-disk : debug] ****************************************************
Tuesday 26 January 2021  16:13:58 -0500 (0:00:00.065)       0:00:39.374 ******* 
skipping: [avm-ora-pp001]
skipping: [avm-wl-pp11.healthedge.biz]
skipping: [avm-ora-pp002]

TASK [he-swap-disk : Get existing /etc/fstab] **********************************
Tuesday 26 January 2021  16:13:58 -0500 (0:00:00.063)       0:00:39.438 ******* 
skipping: [avm-ora-pp001]
skipping: [avm-wl-pp11.healthedge.biz]
skipping: [avm-ora-pp002]

TASK [he-swap-disk : debug] ****************************************************
Tuesday 26 January 2021  16:13:59 -0500 (0:00:00.060)       0:00:39.498 ******* 
skipping: [avm-ora-pp001]
skipping: [avm-wl-pp11.healthedge.biz]
skipping: [avm-ora-pp002]

TASK [he-swap-disk : Remove /etc/fstab swap entry] *****************************
Tuesday 26 January 2021  16:13:59 -0500 (0:00:00.062)       0:00:39.561 ******* 
skipping: [avm-ora-pp001]
skipping: [avm-wl-pp11.healthedge.biz]
skipping: [avm-ora-pp002]

TASK [he-swap-disk : Get /etc/fstab after change] ******************************
Tuesday 26 January 2021  16:13:59 -0500 (0:00:00.061)       0:00:39.622 ******* 
skipping: [avm-ora-pp001]
skipping: [avm-wl-pp11.healthedge.biz]
skipping: [avm-ora-pp002]

TASK [he-swap-disk : debug] ****************************************************
Tuesday 26 January 2021  16:13:59 -0500 (0:00:00.063)       0:00:39.685 ******* 
skipping: [avm-ora-pp001]
skipping: [avm-wl-pp11.healthedge.biz]
skipping: [avm-ora-pp002]

TASK [he-swap-disk : Calculate swap in KB] *************************************
Tuesday 26 January 2021  16:13:59 -0500 (0:00:00.061)       0:00:39.747 ******* 
skipping: [avm-ora-pp001]
skipping: [avm-wl-pp11.healthedge.biz]
skipping: [avm-ora-pp002]

TASK [he-swap-disk : Get current swap partition sizes in Kb from swapon -s] ****
Tuesday 26 January 2021  16:13:59 -0500 (0:00:00.074)       0:00:39.822 ******* 
skipping: [avm-ora-pp001]
skipping: [avm-wl-pp11.healthedge.biz]
skipping: [avm-ora-pp002]

TASK [he-swap-disk : Calculate Swap to Add] ************************************
Tuesday 26 January 2021  16:13:59 -0500 (0:00:00.062)       0:00:39.884 ******* 
skipping: [avm-ora-pp001]
skipping: [avm-wl-pp11.healthedge.biz]
skipping: [avm-ora-pp002]

TASK [he-swap-disk : debug] ****************************************************
Tuesday 26 January 2021  16:13:59 -0500 (0:00:00.065)       0:00:39.950 ******* 
skipping: [avm-ora-pp001]
skipping: [avm-wl-pp11.healthedge.biz]
skipping: [avm-ora-pp002]

TASK [he-swap-disk : debug] ****************************************************
Tuesday 26 January 2021  16:13:59 -0500 (0:00:00.066)       0:00:40.016 ******* 
skipping: [avm-ora-pp001]
skipping: [avm-wl-pp11.healthedge.biz]
skipping: [avm-ora-pp002]

TASK [he-swap-disk : debug] ****************************************************
Tuesday 26 January 2021  16:13:59 -0500 (0:00:00.063)       0:00:40.080 ******* 
skipping: [avm-ora-pp001]
skipping: [avm-wl-pp11.healthedge.biz]
skipping: [avm-ora-pp002]

TASK [he-swap-disk : Determine if we've created our new parition] **************
Tuesday 26 January 2021  16:13:59 -0500 (0:00:00.062)       0:00:40.142 ******* 
skipping: [avm-ora-pp001]
skipping: [avm-wl-pp11.healthedge.biz]
skipping: [avm-ora-pp002]

TASK [he-swap-disk : debug] ****************************************************
Tuesday 26 January 2021  16:13:59 -0500 (0:00:00.061)       0:00:40.204 ******* 
skipping: [avm-ora-pp001]
skipping: [avm-wl-pp11.healthedge.biz]
skipping: [avm-ora-pp002]

TASK [he-swap-disk : Create partition w/ FDisk] ********************************
Tuesday 26 January 2021  16:13:59 -0500 (0:00:00.065)       0:00:40.270 ******* 
skipping: [avm-ora-pp001]
skipping: [avm-wl-pp11.healthedge.biz]
skipping: [avm-ora-pp002]

TASK [he-swap-disk : debug] ****************************************************
Tuesday 26 January 2021  16:13:59 -0500 (0:00:00.066)       0:00:40.336 ******* 
skipping: [avm-ora-pp001]
skipping: [avm-wl-pp11.healthedge.biz]
skipping: [avm-ora-pp002]

TASK [he-swap-disk : Fail if fdisk reports no free sectors or value out of range] ***
Tuesday 26 January 2021  16:13:59 -0500 (0:00:00.063)       0:00:40.399 ******* 
skipping: [avm-ora-pp001]
skipping: [avm-wl-pp11.healthedge.biz]
skipping: [avm-ora-pp002]

TASK [he-swap-disk : List the partition table] *********************************
Tuesday 26 January 2021  16:14:00 -0500 (0:00:00.064)       0:00:40.464 ******* 
skipping: [avm-ora-pp001]
skipping: [avm-wl-pp11.healthedge.biz]
skipping: [avm-ora-pp002]

TASK [he-swap-disk : debug] ****************************************************
Tuesday 26 January 2021  16:14:00 -0500 (0:00:00.064)       0:00:40.528 ******* 
skipping: [avm-ora-pp001]
skipping: [avm-wl-pp11.healthedge.biz]
skipping: [avm-ora-pp002]

TASK [he-swap-disk : Use partprobe for the kernel to see the newly created partition] ***
Tuesday 26 January 2021  16:14:00 -0500 (0:00:00.063)       0:00:40.592 ******* 
skipping: [avm-ora-pp001]
skipping: [avm-wl-pp11.healthedge.biz]
skipping: [avm-ora-pp002]

TASK [he-swap-disk : debug] ****************************************************
Tuesday 26 January 2021  16:14:00 -0500 (0:00:00.063)       0:00:40.656 ******* 
skipping: [avm-ora-pp001]
skipping: [avm-wl-pp11.healthedge.biz]
skipping: [avm-ora-pp002]

TASK [he-swap-disk : Get partprobe summary] ************************************
Tuesday 26 January 2021  16:14:00 -0500 (0:00:00.062)       0:00:40.718 ******* 
skipping: [avm-ora-pp001]
skipping: [avm-wl-pp11.healthedge.biz]
skipping: [avm-ora-pp002]

TASK [he-swap-disk : debug] ****************************************************
Tuesday 26 January 2021  16:14:00 -0500 (0:00:00.067)       0:00:40.786 ******* 
skipping: [avm-ora-pp001]
skipping: [avm-wl-pp11.healthedge.biz]
skipping: [avm-ora-pp002]

TASK [he-swap-disk : Determine if we've previously run mkswap] *****************
Tuesday 26 January 2021  16:14:00 -0500 (0:00:00.066)       0:00:40.853 ******* 
skipping: [avm-ora-pp001]
skipping: [avm-wl-pp11.healthedge.biz]
skipping: [avm-ora-pp002]

TASK [he-swap-disk : debug] ****************************************************
Tuesday 26 January 2021  16:14:00 -0500 (0:00:00.066)       0:00:40.919 ******* 
skipping: [avm-ora-pp001]
skipping: [avm-wl-pp11.healthedge.biz]
skipping: [avm-ora-pp002]

TASK [he-swap-disk : Mkswap, set our new partition as a swap area] *************
Tuesday 26 January 2021  16:14:00 -0500 (0:00:00.068)       0:00:40.988 ******* 
skipping: [avm-ora-pp001]
skipping: [avm-wl-pp11.healthedge.biz]
skipping: [avm-ora-pp002]

TASK [he-swap-disk : debug] ****************************************************
Tuesday 26 January 2021  16:14:00 -0500 (0:00:00.065)       0:00:41.054 ******* 
skipping: [avm-ora-pp001]
skipping: [avm-wl-pp11.healthedge.biz]
skipping: [avm-ora-pp002]

TASK [he-swap-disk : Enable new partition as swap] *****************************
Tuesday 26 January 2021  16:14:00 -0500 (0:00:00.063)       0:00:41.117 ******* 
skipping: [avm-ora-pp001]
skipping: [avm-wl-pp11.healthedge.biz]
skipping: [avm-ora-pp002]

TASK [he-swap-disk : debug] ****************************************************
Tuesday 26 January 2021  16:14:00 -0500 (0:00:00.066)       0:00:41.184 ******* 
skipping: [avm-ora-pp001]
skipping: [avm-wl-pp11.healthedge.biz]
skipping: [avm-ora-pp002]

TASK [he-swap-disk : Get swapon status] ****************************************
Tuesday 26 January 2021  16:14:00 -0500 (0:00:00.061)       0:00:41.246 ******* 
skipping: [avm-ora-pp001]
skipping: [avm-wl-pp11.healthedge.biz]
skipping: [avm-ora-pp002]

TASK [he-swap-disk : debug] ****************************************************
Tuesday 26 January 2021  16:14:00 -0500 (0:00:00.062)       0:00:41.308 ******* 
skipping: [avm-ora-pp001]
skipping: [avm-wl-pp11.healthedge.biz]
skipping: [avm-ora-pp002]

TASK [he-swap-disk : Make /etc/fstab file entry] *******************************
Tuesday 26 January 2021  16:14:00 -0500 (0:00:00.063)       0:00:41.371 ******* 
skipping: [avm-ora-pp001]
skipping: [avm-wl-pp11.healthedge.biz]
skipping: [avm-ora-pp002]

TASK [he-swap-disk : Calculate swap in KB] *************************************
Tuesday 26 January 2021  16:14:00 -0500 (0:00:00.065)       0:00:41.437 ******* 
skipping: [avm-ora-pp001]
skipping: [avm-wl-pp11.healthedge.biz]
skipping: [avm-ora-pp002]

TASK [he-swap-disk : Get current swap partition sizes in Kb from swapon -s] ****
Tuesday 26 January 2021  16:14:01 -0500 (0:00:00.055)       0:00:41.493 ******* 
skipping: [avm-ora-pp001]
skipping: [avm-wl-pp11.healthedge.biz]
skipping: [avm-ora-pp002]

TASK [he-swap-disk : Calculate Swap to Add] ************************************
Tuesday 26 January 2021  16:14:01 -0500 (0:00:00.056)       0:00:41.549 ******* 
skipping: [avm-ora-pp001]
skipping: [avm-wl-pp11.healthedge.biz]
skipping: [avm-ora-pp002]

TASK [he-swap-disk : debug] ****************************************************
Tuesday 26 January 2021  16:14:01 -0500 (0:00:00.055)       0:00:41.605 ******* 
skipping: [avm-ora-pp001]
skipping: [avm-wl-pp11.healthedge.biz]
skipping: [avm-ora-pp002]

TASK [he-swap-disk : debug] ****************************************************
Tuesday 26 January 2021  16:14:01 -0500 (0:00:00.058)       0:00:41.663 ******* 
skipping: [avm-ora-pp001]
skipping: [avm-wl-pp11.healthedge.biz]
skipping: [avm-ora-pp002]

TASK [he-swap-disk : debug] ****************************************************
Tuesday 26 January 2021  16:14:01 -0500 (0:00:00.055)       0:00:41.719 ******* 
skipping: [avm-ora-pp001]
skipping: [avm-wl-pp11.healthedge.biz]
skipping: [avm-ora-pp002]

TASK [he-swap-disk : Determine if we've created our new parition (sda3)] *******
Tuesday 26 January 2021  16:14:01 -0500 (0:00:00.060)       0:00:41.780 ******* 
skipping: [avm-ora-pp001]
skipping: [avm-wl-pp11.healthedge.biz]
skipping: [avm-ora-pp002]

TASK [he-swap-disk : Create partition w/ FDisk] ********************************
Tuesday 26 January 2021  16:14:01 -0500 (0:00:00.068)       0:00:41.848 ******* 
skipping: [avm-ora-pp001]
skipping: [avm-wl-pp11.healthedge.biz]
skipping: [avm-ora-pp002]

TASK [he-swap-disk : debug] ****************************************************
Tuesday 26 January 2021  16:14:01 -0500 (0:00:00.058)       0:00:41.907 ******* 
skipping: [avm-ora-pp001]
skipping: [avm-wl-pp11.healthedge.biz]
skipping: [avm-ora-pp002]

TASK [he-swap-disk : Use partx to notify kernel of partition table changes (may show up as changed but idempotent)] ***
Tuesday 26 January 2021  16:14:01 -0500 (0:00:00.061)       0:00:41.969 ******* 
skipping: [avm-ora-pp001]
skipping: [avm-wl-pp11.healthedge.biz]
skipping: [avm-ora-pp002]

TASK [he-swap-disk : debug] ****************************************************
Tuesday 26 January 2021  16:14:01 -0500 (0:00:00.060)       0:00:42.029 ******* 
skipping: [avm-ora-pp001]
skipping: [avm-wl-pp11.healthedge.biz]
skipping: [avm-ora-pp002]

TASK [he-swap-disk : Mkswap, set our new partition as a swap area] *************
Tuesday 26 January 2021  16:14:01 -0500 (0:00:00.061)       0:00:42.090 ******* 
skipping: [avm-ora-pp001]
skipping: [avm-wl-pp11.healthedge.biz]
skipping: [avm-ora-pp002]

TASK [he-swap-disk : debug] ****************************************************
Tuesday 26 January 2021  16:14:01 -0500 (0:00:00.061)       0:00:42.152 ******* 
skipping: [avm-ora-pp001]
skipping: [avm-wl-pp11.healthedge.biz]
skipping: [avm-ora-pp002]

TASK [he-swap-disk : Determine if we've enabled our swap parition] *************
Tuesday 26 January 2021  16:14:01 -0500 (0:00:00.069)       0:00:42.222 ******* 
skipping: [avm-ora-pp001]
skipping: [avm-wl-pp11.healthedge.biz]
skipping: [avm-ora-pp002]

TASK [he-swap-disk : Enable new partition as swap] *****************************
Tuesday 26 January 2021  16:14:01 -0500 (0:00:00.064)       0:00:42.287 ******* 
skipping: [avm-ora-pp001]
skipping: [avm-wl-pp11.healthedge.biz]
skipping: [avm-ora-pp002]

TASK [he-swap-disk : debug] ****************************************************
Tuesday 26 January 2021  16:14:01 -0500 (0:00:00.057)       0:00:42.345 ******* 
skipping: [avm-ora-pp001]
skipping: [avm-wl-pp11.healthedge.biz]
skipping: [avm-ora-pp002]

TASK [he-swap-disk : Make /etc/fstab file entry] *******************************
Tuesday 26 January 2021  16:14:01 -0500 (0:00:00.061)       0:00:42.406 ******* 
skipping: [avm-ora-pp001]
skipping: [avm-wl-pp11.healthedge.biz]
skipping: [avm-ora-pp002]

TASK [he-configure-etc-hosts : fail] *******************************************
Tuesday 26 January 2021  16:14:02 -0500 (0:00:00.058)       0:00:42.464 ******* 
skipping: [avm-ora-pp001]
skipping: [avm-wl-pp11.healthedge.biz]
skipping: [avm-ora-pp002]

TASK [he-configure-etc-hosts : fail] *******************************************
Tuesday 26 January 2021  16:14:02 -0500 (0:00:00.065)       0:00:42.529 ******* 
skipping: [avm-ora-pp001]
skipping: [avm-wl-pp11.healthedge.biz]
skipping: [avm-ora-pp002]

TASK [he-configure-etc-hosts : Setting domain name Datacenter for Savvis] ******
Tuesday 26 January 2021  16:14:02 -0500 (0:00:00.056)       0:00:42.586 ******* 
skipping: [avm-ora-pp001]
skipping: [avm-wl-pp11.healthedge.biz]
skipping: [avm-ora-pp002]

TASK [he-configure-etc-hosts : Setting domain name Datacenter for NaviSite] ****
Tuesday 26 January 2021  16:14:02 -0500 (0:00:00.057)       0:00:42.644 ******* 
skipping: [avm-ora-pp001]
skipping: [avm-wl-pp11.healthedge.biz]
skipping: [avm-ora-pp002]

TASK [he-configure-etc-hosts : Configure /etc/hosts on the target machine] *****
Tuesday 26 January 2021  16:14:02 -0500 (0:00:00.063)       0:00:42.707 ******* 
skipping: [avm-ora-pp001]
skipping: [avm-wl-pp11.healthedge.biz]
skipping: [avm-ora-pp002]

TASK [he-configure-etc-hosts : Configure host in its /etc/hosts] ***************
Tuesday 26 January 2021  16:14:02 -0500 (0:00:00.059)       0:00:42.767 ******* 
skipping: [avm-ora-pp001]
skipping: [avm-wl-pp11.healthedge.biz]
skipping: [avm-ora-pp002]

TASK [he-configure-etc-hosts : Configure payor hosts in payor-apache-lb /etc/hosts] ***
Tuesday 26 January 2021  16:14:02 -0500 (0:00:00.060)       0:00:42.828 ******* 
skipping: [avm-ora-pp001] => (item=avm-wl-pp11.healthedge.biz) 
skipping: [avm-wl-pp11.healthedge.biz] => (item=avm-wl-pp11.healthedge.biz) 
skipping: [avm-ora-pp002] => (item=avm-wl-pp11.healthedge.biz) 

TASK [he-ad-join-centos : VMware Upload the current AD domain join / Unix host setup script] ***
Tuesday 26 January 2021  16:14:02 -0500 (0:00:00.075)       0:00:42.904 ******* 
skipping: [avm-ora-pp001]
skipping: [avm-wl-pp11.healthedge.biz]
skipping: [avm-ora-pp002]

TASK [he-ad-join-centos : VMware Execute the current AD domain join / Unix host setup script] ***
Tuesday 26 January 2021  16:14:02 -0500 (0:00:00.062)       0:00:42.966 ******* 
skipping: [avm-ora-pp001]
skipping: [avm-wl-pp11.healthedge.biz]
skipping: [avm-ora-pp002]

PLAY [Generate installer property files] ***************************************

TASK [Gathering Facts] *********************************************************
Tuesday 26 January 2021  16:14:02 -0500 (0:00:00.096)       0:00:43.062 ******* 
ok: [localhost]

TASK [he-load-metadata : Do we have a override file for this environment?] *****
Tuesday 26 January 2021  16:14:08 -0500 (0:00:06.318)       0:00:49.381 ******* 
ok: [localhost -> localhost]

TASK [he-load-metadata : Test environment override file] ***********************
Tuesday 26 January 2021  16:14:09 -0500 (0:00:00.757)       0:00:50.139 ******* 
skipping: [localhost]

TASK [he-load-metadata : Include_vars environment overrides file] **************
Tuesday 26 January 2021  16:14:09 -0500 (0:00:00.029)       0:00:50.168 ******* 
ok: [localhost -> localhost]

TASK [he-load-metadata : Do we have a default customer.yml for this customer?] ***
Tuesday 26 January 2021  16:14:09 -0500 (0:00:00.040)       0:00:50.209 ******* 
ok: [localhost -> localhost]

TASK [he-load-metadata : Test customer.yml] ************************************
Tuesday 26 January 2021  16:14:10 -0500 (0:00:00.763)       0:00:50.973 ******* 
skipping: [localhost]

TASK [he-load-metadata : Include_vars customer.yml] ****************************
Tuesday 26 January 2021  16:14:10 -0500 (0:00:00.031)       0:00:51.005 ******* 
ok: [localhost -> localhost]

TASK [he-load-metadata : Do we have an SLA-specific customer-<SLA>.yml for this customer?] ***
Tuesday 26 January 2021  16:14:10 -0500 (0:00:00.043)       0:00:51.049 ******* 
ok: [localhost -> localhost]

TASK [he-load-metadata : Include SLA-Specific customer.yml] ********************
Tuesday 26 January 2021  16:14:10 -0500 (0:00:00.232)       0:00:51.281 ******* 
skipping: [localhost]

TASK [he-load-metadata : load environments-config vars] ************************
Tuesday 26 January 2021  16:14:10 -0500 (0:00:00.026)       0:00:51.308 ******* 
included: /home/ansible/hebb/gjawaharani/he-provisioner-21.1/common/roles/he-load-metadata/tasks/environments-config.yml for localhost

TASK [he-load-metadata : include environments-config vars] *********************
Tuesday 26 January 2021  16:14:10 -0500 (0:00:00.066)       0:00:51.374 ******* 
ok: [localhost -> localhost]

TASK [he-load-metadata : Do we have a diff-by-sla file for this SLA?] **********
Tuesday 26 January 2021  16:14:10 -0500 (0:00:00.039)       0:00:51.413 ******* 
ok: [localhost -> localhost]

TASK [he-load-metadata : Include default diff-by-sla meta-data] ****************
Tuesday 26 January 2021  16:14:11 -0500 (0:00:00.229)       0:00:51.642 ******* 
ok: [localhost -> localhost]

TASK [he-load-metadata : Include SLA-specific diff-by-sla meta-data] ***********
Tuesday 26 January 2021  16:14:11 -0500 (0:00:00.058)       0:00:51.701 ******* 
skipping: [localhost]

TASK [he-load-metadata : Do we have a defaults.yml in the metadata locale ?] ***
Tuesday 26 January 2021  16:14:11 -0500 (0:00:00.029)       0:00:51.731 ******* 
ok: [localhost -> localhost]

TASK [he-load-metadata : Include metadata defaults.yml] ************************
Tuesday 26 January 2021  16:14:12 -0500 (0:00:00.770)       0:00:52.501 ******* 
 [WARNING]: While constructing a mapping from True, line 4, column 1, found a
duplicate dict key (caremanager_template_name). Using last defined value only.
ok: [localhost -> localhost]

TASK [he-load-metadata : Include_vars environment overrides file to key into provisioner region] ***
Tuesday 26 January 2021  16:14:12 -0500 (0:00:00.051)       0:00:52.552 ******* 
ok: [localhost -> localhost]

TASK [he-load-metadata : Include Provisioner-region metadata] ******************
Tuesday 26 January 2021  16:14:12 -0500 (0:00:00.043)       0:00:52.596 ******* 
ok: [localhost -> localhost]

TASK [he-load-metadata : load shared secrets] **********************************
Tuesday 26 January 2021  16:14:12 -0500 (0:00:00.045)       0:00:52.641 ******* 
included: /home/ansible/hebb/gjawaharani/he-provisioner-21.1/common/roles/he-load-metadata/tasks/secrets-shared.yml for localhost

TASK [he-load-metadata : get shared-secrets variables] *************************
Tuesday 26 January 2021  16:14:12 -0500 (0:00:00.069)       0:00:52.710 ******* 
ok: [localhost -> localhost]

TASK [he-load-metadata : include_vars for role, environment override, and secrets files] ***
Tuesday 26 January 2021  16:14:12 -0500 (0:00:00.045)       0:00:52.755 ******* 
 [WARNING]: The loop variable 'item' is already in use. You should set the
`loop_var` value in the `loop_control` option for the task to something else to
avoid variable collisions and unexpected behavior.
ok: [localhost -> localhost] => (item=/home/ansible/hebb/gjawaharani/environments-customer/Avmed/preprod-caprun/override)
ok: [localhost -> localhost] => (item=~/secrets/secrets.yml)
ok: [localhost -> localhost] => (item=~/secrets/secrets-vra.yml)

TASK [he-load-metadata : do we have region specific secrets for this provisioner?] ***
Tuesday 26 January 2021  16:14:12 -0500 (0:00:00.079)       0:00:52.835 ******* 
ok: [localhost -> localhost]

TASK [he-load-metadata : include region specific secrets file] *****************
Tuesday 26 January 2021  16:14:12 -0500 (0:00:00.235)       0:00:53.071 ******* 
skipping: [localhost]

TASK [he-load-metadata : do we have generic customer secrets file?] ************
Tuesday 26 January 2021  16:14:12 -0500 (0:00:00.029)       0:00:53.100 ******* 
ok: [localhost -> localhost]

TASK [he-load-metadata : include generic customer secrets file] ****************
Tuesday 26 January 2021  16:14:13 -0500 (0:00:00.767)       0:00:53.868 ******* 
ok: [localhost -> localhost]

TASK [he-load-metadata : load customer-environment secrets] ********************
Tuesday 26 January 2021  16:14:13 -0500 (0:00:00.040)       0:00:53.909 ******* 
included: /home/ansible/hebb/gjawaharani/he-provisioner-21.1/common/roles/he-load-metadata/tasks/secrets-customer-environment.yml for localhost

TASK [he-load-metadata : do we have customer-environment specific secrets?] ****
Tuesday 26 January 2021  16:14:13 -0500 (0:00:00.066)       0:00:53.976 ******* 
ok: [localhost -> localhost]

TASK [he-load-metadata : include customer-environment specific secrets] ********
Tuesday 26 January 2021  16:14:13 -0500 (0:00:00.235)       0:00:54.211 ******* 
skipping: [localhost]

TASK [he-load-metadata : Include_vars environment overrides file one last time to catch overrides] ***
Tuesday 26 January 2021  16:14:13 -0500 (0:00:00.029)       0:00:54.241 ******* 
ok: [localhost -> localhost]

TASK [he-load-metadata : Do we have a default customer.yml for this customer?] ***
Tuesday 26 January 2021  16:14:13 -0500 (0:00:00.039)       0:00:54.281 ******* 
ok: [localhost -> localhost]

TASK [he-load-metadata : Test customer.yml] ************************************
Tuesday 26 January 2021  16:14:14 -0500 (0:00:00.779)       0:00:55.061 ******* 
skipping: [localhost]

TASK [he-load-metadata : Include_vars customer.yml] ****************************
Tuesday 26 January 2021  16:14:14 -0500 (0:00:00.028)       0:00:55.090 ******* 
ok: [localhost -> localhost]

TASK [he-load-metadata : Do we have an SLA-specific customer-<SLA>.yml for this customer?] ***
Tuesday 26 January 2021  16:14:14 -0500 (0:00:00.043)       0:00:55.133 ******* 
ok: [localhost -> localhost]

TASK [he-load-metadata : Include SLA-Specific customer.yml] ********************
Tuesday 26 January 2021  16:14:14 -0500 (0:00:00.234)       0:00:55.368 ******* 
skipping: [localhost]

TASK [he-load-metadata : Include_vars environment overrides file one last time to catch overrides] ***
Tuesday 26 January 2021  16:14:14 -0500 (0:00:00.030)       0:00:55.398 ******* 
ok: [localhost -> localhost]

TASK [he-generate-installer-properties : Remove non-product specific generated properties directory. Use product specific directories.] ***
Tuesday 26 January 2021  16:14:14 -0500 (0:00:00.037)       0:00:55.436 ******* 
ok: [localhost]

TASK [he-generate-installer-properties : Create generated properties files directories] ***
Tuesday 26 January 2021  16:14:15 -0500 (0:00:00.427)       0:00:55.864 ******* 
changed: [localhost] => (item=.)
changed: [localhost] => (item=care-admin)
changed: [localhost] => (item=connector)
changed: [localhost] => (item=custom)
changed: [localhost] => (item=hosts)
changed: [localhost] => (item=payor)

TASK [he-generate-installer-properties : Generate pushbutton.yml] **************
Tuesday 26 January 2021  16:14:16 -0500 (0:00:01.269)       0:00:57.133 ******* 
changed: [localhost]

TASK [he-generate-installer-properties : Check if advanced-pushbutton template exists] ***
Tuesday 26 January 2021  16:14:17 -0500 (0:00:00.702)       0:00:57.836 ******* 
ok: [localhost]

TASK [he-generate-installer-properties : Load Pushbutton properties variables] ***
Tuesday 26 January 2021  16:14:18 -0500 (0:00:00.766)       0:00:58.603 ******* 
ok: [localhost]

TASK [he-generate-installer-properties : Generate advanced-pushbutton.yml] *****
Tuesday 26 January 2021  16:14:18 -0500 (0:00:00.037)       0:00:58.641 ******* 
changed: [localhost]

TASK [he-generate-installer-properties : Generate hosts/payor_hosts] ***********
Tuesday 26 January 2021  16:14:18 -0500 (0:00:00.566)       0:00:59.207 ******* 
changed: [localhost]

TASK [he-generate-installer-properties : Generate hosts/connector_hosts] *******
Tuesday 26 January 2021  16:14:19 -0500 (0:00:00.929)       0:01:00.137 ******* 
changed: [localhost]

TASK [he-generate-installer-properties : Generate payor/custom-files.txt] ******
Tuesday 26 January 2021  16:14:20 -0500 (0:00:00.586)       0:01:00.723 ******* 
changed: [localhost]

TASK [he-generate-installer-properties : Generate payor/payor.yml] *************
Tuesday 26 January 2021  16:14:20 -0500 (0:00:00.573)       0:01:01.296 ******* 
changed: [localhost]

TASK [he-generate-installer-properties : Generate payor/wl.properties] *********
Tuesday 26 January 2021  16:14:21 -0500 (0:00:00.568)       0:01:01.865 ******* 
changed: [localhost]

TASK [he-generate-installer-properties : Generate care-admin/PayorCareAdminConfiguration.xml] ***
Tuesday 26 January 2021  16:14:22 -0500 (0:00:00.958)       0:01:02.824 ******* 
changed: [localhost]

TASK [he-generate-installer-properties : Generate care-admin/server.properties] ***
Tuesday 26 January 2021  16:14:22 -0500 (0:00:00.566)       0:01:03.390 ******* 
changed: [localhost]

TASK [he-generate-installer-properties : Generate custom/custom.properties] ****
Tuesday 26 January 2021  16:14:23 -0500 (0:00:00.571)       0:01:03.962 ******* 
changed: [localhost]

TASK [he-generate-installer-properties : Generate custom/custom.yml] ***********
Tuesday 26 January 2021  16:14:24 -0500 (0:00:00.595)       0:01:04.557 ******* 
changed: [localhost]

TASK [he-generate-installer-properties : Get connector distribution 18.2-272236 present in /opt/media] ***
Tuesday 26 January 2021  16:14:24 -0500 (0:00:00.664)       0:01:05.222 ******* 
skipping: [localhost]

TASK [he-generate-installer-properties : Get connector distro 18.2-272236 file status from release repo(http://nexus.headquarters.healthedge.com:8081/content/repositories/releases-connector/com/healthedge/c4/connector-distribution/18.2-272236/connector-distribution-18.2-272236.tar.gz)] ***
Tuesday 26 January 2021  16:14:24 -0500 (0:00:00.058)       0:01:05.280 ******* 
skipping: [localhost]

TASK [he-generate-installer-properties : Display connector_distro_status] ******
Tuesday 26 January 2021  16:14:24 -0500 (0:00:00.026)       0:01:05.306 ******* 
skipping: [localhost]

TASK [he-generate-installer-properties : set connector_nexus_path to staging] ***
Tuesday 26 January 2021  16:14:24 -0500 (0:00:00.025)       0:01:05.332 ******* 
skipping: [localhost]

TASK [he-generate-installer-properties : Download connector distro 18.2-272236 from http://nexus.headquarters.healthedge.com:8081/content/repositories/releases-connector/com/healthedge/c4/connector-distribution/18.2-272236/connector-distribution-18.2-272236.tar.gz] ***
Tuesday 26 January 2021  16:14:24 -0500 (0:00:00.035)       0:01:05.367 ******* 
skipping: [localhost]

TASK [he-generate-installer-properties : Insure connector distribution is present] ***
Tuesday 26 January 2021  16:14:24 -0500 (0:00:00.040)       0:01:05.408 ******* 
skipping: [localhost]

TASK [he-generate-installer-properties : fail] *********************************
Tuesday 26 January 2021  16:14:24 -0500 (0:00:00.026)       0:01:05.435 ******* 
skipping: [localhost]

TASK [he-generate-installer-properties : Manifest-search: get file-list from connector distrib.] ***
Tuesday 26 January 2021  16:14:25 -0500 (0:00:00.034)       0:01:05.469 ******* 
skipping: [localhost]

TASK [he-generate-installer-properties : debug] ********************************
Tuesday 26 January 2021  16:14:25 -0500 (0:00:00.025)       0:01:05.494 ******* 
skipping: [localhost]

TASK [he-generate-installer-properties : debug] ********************************
Tuesday 26 January 2021  16:14:25 -0500 (0:00:00.025)       0:01:05.519 ******* 
skipping: [localhost]

TASK [he-generate-installer-properties : Connector host.properties set_fact] ***
Tuesday 26 January 2021  16:14:25 -0500 (0:00:00.025)       0:01:05.545 ******* 
skipping: [localhost]

TASK [he-generate-installer-properties : Generate connector/<host>.properties] ***
Tuesday 26 January 2021  16:14:25 -0500 (0:00:00.026)       0:01:05.571 ******* 

TASK [he-generate-installer-properties : Create tmp directory] *****************
Tuesday 26 January 2021  16:14:25 -0500 (0:00:00.030)       0:01:05.602 ******* 
skipping: [localhost]

TASK [he-generate-installer-properties : Extract the manifest from the connector distrib.] ***
Tuesday 26 January 2021  16:14:25 -0500 (0:00:00.035)       0:01:05.637 ******* 
skipping: [localhost]

TASK [he-generate-installer-properties : Get connector distrib manifest contents] ***
Tuesday 26 January 2021  16:14:25 -0500 (0:00:00.032)       0:01:05.669 ******* 
skipping: [localhost]

TASK [he-generate-installer-properties : Generate connector/<host>.properties] ***
Tuesday 26 January 2021  16:14:25 -0500 (0:00:00.027)       0:01:05.697 ******* 

TASK [he-generate-installer-properties : Updated Hmem features to connector/<host>.properties] ***
Tuesday 26 January 2021  16:14:25 -0500 (0:00:00.025)       0:01:05.723 ******* 

TASK [he-generate-installer-properties : Clean up tmp directory] ***************
Tuesday 26 January 2021  16:14:25 -0500 (0:00:00.031)       0:01:05.755 ******* 
skipping: [localhost]

TASK [he-generate-installer-properties : Generate connector/connector.yml] *****
Tuesday 26 January 2021  16:14:25 -0500 (0:00:00.027)       0:01:05.782 ******* 
skipping: [localhost]

TASK [he-generate-installer-properties : Generate connector/connector_fresh_install.properties] ***
Tuesday 26 January 2021  16:14:25 -0500 (0:00:00.027)       0:01:05.809 ******* 
skipping: [localhost] => (item=/home/ansible/hebb/gjawaharani/he-provisioner-21.1/common/roles/he-generate-installer-properties/templates/connector/connector_fresh_install_18.2.properties.j2) 

TASK [he-generate-installer-properties : Generate connector/connector_upgrade_new_configs.properties] ***
Tuesday 26 January 2021  16:14:25 -0500 (0:00:00.036)       0:01:05.845 ******* 
skipping: [localhost]

TASK [he-generate-installer-properties : Generate connector/custom_fresh_install.properties] ***
Tuesday 26 January 2021  16:14:25 -0500 (0:00:00.030)       0:01:05.876 ******* 
skipping: [localhost]

TASK [he-generate-installer-properties : Generate connector/custom-files.txt] ***
Tuesday 26 January 2021  16:14:25 -0500 (0:00:00.038)       0:01:05.915 ******* 
skipping: [localhost]

TASK [he-generate-installer-properties : debug] ********************************
Tuesday 26 January 2021  16:14:25 -0500 (0:00:00.030)       0:01:05.945 ******* 

TASK [he-generate-installer-properties : Generate connector/<host>-connector-features-configs.properties] ***
Tuesday 26 January 2021  16:14:25 -0500 (0:00:00.028)       0:01:05.974 ******* 

TASK [he-generate-installer-properties : Generate connector/<host>_custom.properties] ***
Tuesday 26 January 2021  16:14:25 -0500 (0:00:00.030)       0:01:06.005 ******* 

TASK [he-generate-installer-properties : Generate connector/<host>-connector-custom-features-configs.properties] ***
Tuesday 26 January 2021  16:14:25 -0500 (0:00:00.027)       0:01:06.032 ******* 

TASK [he-generate-installer-properties : Create generated properties files directories] ***
Tuesday 26 January 2021  16:14:25 -0500 (0:00:00.022)       0:01:06.054 ******* 
changed: [localhost] => (item=config/group_vars/all)
changed: [localhost] => (item=custom_files)
changed: [localhost] => (item=config/group_vars/windows-servers)

TASK [he-generate-installer-properties : Generate cm group_vars/all files] *****
Tuesday 26 January 2021  16:14:26 -0500 (0:00:00.636)       0:01:06.691 ******* 
changed: [localhost] => (item=/home/ansible/hebb/gjawaharani/he-provisioner-21.1/common/roles/he-generate-installer-properties/tasks/../templates/caremanager/caremanager.yml.j2)
changed: [localhost] => (item=/home/ansible/hebb/gjawaharani/he-provisioner-21.1/common/roles/he-generate-installer-properties/tasks/../templates/caremanager/caremanager_careadmin.yml.j2)
changed: [localhost] => (item=/home/ansible/hebb/gjawaharani/he-provisioner-21.1/common/roles/he-generate-installer-properties/tasks/../templates/caremanager/caremanager_locations.yml.j2)
changed: [localhost] => (item=/home/ansible/hebb/gjawaharani/he-provisioner-21.1/common/roles/he-generate-installer-properties/tasks/../templates/caremanager/caremanager_system_software.yml.j2)
changed: [localhost] => (item=/home/ansible/hebb/gjawaharani/he-provisioner-21.1/common/roles/he-generate-installer-properties/tasks/../templates/caremanager/carepathways.yml.j2)
changed: [localhost] => (item=/home/ansible/hebb/gjawaharani/he-provisioner-21.1/common/roles/he-generate-installer-properties/tasks/../templates/caremanager/he-installer.environment.yml.j2)
changed: [localhost] => (item=/home/ansible/hebb/gjawaharani/he-provisioner-21.1/common/roles/he-generate-installer-properties/tasks/../templates/caremanager/integration-services.yml.j2)
changed: [localhost] => (item=/home/ansible/hebb/gjawaharani/he-provisioner-21.1/common/roles/he-generate-installer-properties/tasks/../templates/caremanager/printcomm.yml.j2)
changed: [localhost] => (item=/home/ansible/hebb/gjawaharani/he-provisioner-21.1/common/roles/he-generate-installer-properties/tasks/../templates/caremanager/providersearch.yml.j2)
changed: [localhost] => (item=/home/ansible/hebb/gjawaharani/he-provisioner-21.1/common/roles/he-generate-installer-properties/tasks/../templates/caremanager/tasktool.yml.j2)

TASK [he-generate-installer-properties : Generate group_vars/windows-servers files] ***
Tuesday 26 January 2021  16:14:31 -0500 (0:00:04.980)       0:01:11.672 ******* 
changed: [localhost] => (item=/home/ansible/hebb/gjawaharani/he-provisioner-21.1/common/roles/he-generate-installer-properties/tasks/../templates/caremanager-windows-servers/windows-servers.yml.j2)

TASK [he-generate-installer-properties : Generate CM hosts file] ***************
Tuesday 26 January 2021  16:14:31 -0500 (0:00:00.579)       0:01:12.251 ******* 
changed: [localhost]

TASK [he-generate-installer-properties : Copy ipg_pch_data file] ***************
Tuesday 26 January 2021  16:14:32 -0500 (0:00:00.556)       0:01:12.808 ******* 
skipping: [localhost]

TASK [he-generate-installer-properties : Copy c4c_ca_ext_sql_file file] ********
Tuesday 26 January 2021  16:14:32 -0500 (0:00:00.027)       0:01:12.836 ******* 
skipping: [localhost]

TASK [he-generate-installer-properties : Create generated answers properties directory] ***
Tuesday 26 January 2021  16:14:32 -0500 (0:00:00.027)       0:01:12.863 ******* 
changed: [localhost]

TASK [he-generate-installer-properties : Generate answers.yml] *****************
Tuesday 26 January 2021  16:14:32 -0500 (0:00:00.225)       0:01:13.088 ******* 
changed: [localhost]

TASK [he-generate-installer-properties : Create generated PIK properties directory] ***
Tuesday 26 January 2021  16:14:33 -0500 (0:00:00.571)       0:01:13.660 ******* 
changed: [localhost]

TASK [he-generate-installer-properties : Generate pik.yml] *********************
Tuesday 26 January 2021  16:14:33 -0500 (0:00:00.227)       0:01:13.888 ******* 
changed: [localhost]

TASK [he-generate-installer-properties : Create generated Provider Directory properties directory] ***
Tuesday 26 January 2021  16:14:33 -0500 (0:00:00.566)       0:01:14.454 ******* 
skipping: [localhost]

TASK [he-generate-installer-properties : Generate Provider Directory property files] ***
Tuesday 26 January 2021  16:14:34 -0500 (0:00:00.025)       0:01:14.479 ******* 
skipping: [localhost] => (item=provider-directory.yml) 
skipping: [localhost] => (item=provider-directory_features.properties) 
skipping: [localhost] => (item=provider-directory_install_override.properties) 
skipping: [localhost] => (item=provider-directory_upgrade_override.properties) 

TASK [he-generate-installer-properties : Fail if provider directory distribution not exists under /opt/media] ***
Tuesday 26 January 2021  16:14:34 -0500 (0:00:00.056)       0:01:14.536 ******* 
skipping: [localhost]

TASK [he-generate-installer-properties : Create temporary directory] ***********
Tuesday 26 January 2021  16:14:34 -0500 (0:00:00.025)       0:01:14.561 ******* 
skipping: [localhost]

TASK [he-generate-installer-properties : Untar provider directory distribution tar on {{ pd_host_temp.path }}] ***
Tuesday 26 January 2021  16:14:34 -0500 (0:00:00.031)       0:01:14.592 ******* 
skipping: [localhost]

TASK [he-generate-installer-properties : Check provider directory manifest property file exists under {{ pd_temp.path }}/{{ pd_software_distribution_fbase }}] ***
Tuesday 26 January 2021  16:14:34 -0500 (0:00:00.029)       0:01:14.621 ******* 
skipping: [localhost]

TASK [he-generate-installer-properties : Generate provider-directory/<host>.properties from default host properties if manifest file not exists] ***
Tuesday 26 January 2021  16:14:34 -0500 (0:00:00.023)       0:01:14.646 ******* 
skipping: [localhost]

TASK [he-generate-installer-properties : Generate provider-directory/<host>.properties from manifest file] ***
Tuesday 26 January 2021  16:14:34 -0500 (0:00:00.026)       0:01:14.672 ******* 
skipping: [localhost]

TASK [he-generate-installer-properties : Delete temporary directory-{{ pd_temp.path }}] ***
Tuesday 26 January 2021  16:14:34 -0500 (0:00:00.028)       0:01:14.700 ******* 
skipping: [localhost]

TASK [he-generate-installer-properties : Create Install script] ****************
Tuesday 26 January 2021  16:14:34 -0500 (0:00:00.025)       0:01:14.726 ******* 
changed: [localhost]

PLAY [Serial Yum update] *******************************************************

TASK [Gathering Facts] *********************************************************
Tuesday 26 January 2021  16:14:34 -0500 (0:00:00.573)       0:01:15.299 ******* 
ok: [avm-wl-pp11.healthedge.biz]
ok: [avm-ora-pp001]
ok: [avm-ora-pp002]

TASK [he-yum-internal-repo : Configure HealthEdge IUS repo] ********************
Tuesday 26 January 2021  16:14:49 -0500 (0:00:14.951)       0:01:30.251 ******* 
skipping: [avm-ora-pp001]
skipping: [avm-wl-pp11.healthedge.biz]
skipping: [avm-ora-pp002]

TASK [he-yum-internal-repo : Copy key file for IUS repo] ***********************
Tuesday 26 January 2021  16:14:49 -0500 (0:00:00.052)       0:01:30.303 ******* 
skipping: [avm-ora-pp001]
skipping: [avm-wl-pp11.healthedge.biz]
skipping: [avm-ora-pp002]

TASK [he-yum-internal-repo : Configure HealthEdge Internal IUS repo] ***********
Tuesday 26 January 2021  16:14:49 -0500 (0:00:00.051)       0:01:30.355 ******* 
skipping: [avm-ora-pp001]
skipping: [avm-wl-pp11.healthedge.biz]
skipping: [avm-ora-pp002]

TASK [he-yum-installs : install yum packages all] ******************************
Tuesday 26 January 2021  16:14:49 -0500 (0:00:00.066)       0:01:30.422 ******* 
ok: [avm-ora-pp001] => (item=[u'tree', u'telnet', u'mutt', u'firewalld', u'rsync', u'unzip'])
ok: [avm-ora-pp002] => (item=[u'tree', u'telnet', u'mutt', u'firewalld', u'rsync', u'unzip'])
changed: [avm-wl-pp11.healthedge.biz] => (item=[u'tree', u'telnet', u'mutt', u'firewalld', u'rsync', u'unzip'])

TASK [he-yum-installs : install yum packages group] ****************************
Tuesday 26 January 2021  16:14:59 -0500 (0:00:09.069)       0:01:39.492 ******* 
skipping: [avm-wl-pp11.healthedge.biz]
ok: [avm-ora-pp001] => (item=[u'tree', u'zip', u'unzip', u'rlwrap', u'mutt'])
ok: [avm-ora-pp002] => (item=[u'tree', u'zip', u'unzip', u'rlwrap', u'mutt'])

TASK [he-yum-installs : check for Metacity rpm installed] **********************
Tuesday 26 January 2021  16:15:01 -0500 (0:00:02.381)       0:01:41.873 ******* 
 [WARNING]: Consider using yum, dnf or zypper module rather than running rpm
ok: [avm-wl-pp11.healthedge.biz]
ok: [avm-ora-pp001]
ok: [avm-ora-pp002]

TASK [he-yum-installs : remove Metacity rpm] ***********************************
Tuesday 26 January 2021  16:15:27 -0500 (0:00:25.604)       0:02:07.478 ******* 
skipping: [avm-ora-pp001]
skipping: [avm-wl-pp11.healthedge.biz]
skipping: [avm-ora-pp002]

TASK [he-yum-installs : Update to latest packages] *****************************
Tuesday 26 January 2021  16:15:27 -0500 (0:00:00.073)       0:02:07.551 ******* 
skipping: [avm-ora-pp001]
skipping: [avm-wl-pp11.healthedge.biz]
skipping: [avm-ora-pp002]

PLAY [Install Pre-requisites] **************************************************

TASK [Gathering Facts] *********************************************************
Tuesday 26 January 2021  16:15:27 -0500 (0:00:00.092)       0:02:07.644 ******* 
ok: [avm-wl-pp11.healthedge.biz]
ok: [avm-ora-pp001]
ok: [avm-ora-pp002]

TASK [he-timezone : Put SELinux in permissive mode if necessary] ***************
Tuesday 26 January 2021  16:15:30 -0500 (0:00:03.341)       0:02:10.985 ******* 
skipping: [avm-ora-pp001]
skipping: [avm-wl-pp11.healthedge.biz]
skipping: [avm-ora-pp002]

TASK [he-timezone : Configure customer timezone] *******************************
Tuesday 26 January 2021  16:15:30 -0500 (0:00:00.063)       0:02:11.049 ******* 
skipping: [avm-ora-pp001]
skipping: [avm-ora-pp002]
ok: [avm-wl-pp11.healthedge.biz]

TASK [he-timezone : Restore SELinux mode] **************************************
Tuesday 26 January 2021  16:15:31 -0500 (0:00:00.590)       0:02:11.640 ******* 
skipping: [avm-ora-pp001]
skipping: [avm-wl-pp11.healthedge.biz]
skipping: [avm-ora-pp002]

TASK [he-create-sys-app-user : create sys_app_group] ***************************
Tuesday 26 January 2021  16:15:31 -0500 (0:00:00.059)       0:02:11.699 ******* 
changed: [avm-wl-pp11.healthedge.biz]
changed: [avm-ora-pp001]
changed: [avm-ora-pp002]

TASK [he-create-sys-app-user : create sys_app_user & user's SSH key] ***********
Tuesday 26 January 2021  16:15:34 -0500 (0:00:03.277)       0:02:14.977 ******* 
changed: [avm-wl-pp11.healthedge.biz]
fatal: [avm-ora-pp001]: FAILED! => {"changed": false, "msg": "usermod: user oracle is currently used by process 1071\n", "name": "oracle", "rc": 8}
fatal: [avm-ora-pp002]: FAILED! => {"changed": false, "msg": "usermod: user oracle is currently used by process 1371\n", "name": "oracle", "rc": 8}

NO MORE HOSTS LEFT *************************************************************
	to retry, use: --limit @/home/ansible/.ansible/retry-files/configure-env.retry

PLAY RECAP *********************************************************************
avm-ora-pp001              : ok=40   changed=3    unreachable=0    failed=1   
avm-ora-pp002              : ok=40   changed=3    unreachable=0    failed=1   
avm-wl-pp11.healthedge.biz : ok=40   changed=3    unreachable=0    failed=0   
localhost                  : ok=55   changed=23   unreachable=0    failed=0   

Tuesday 26 January 2021  16:15:35 -0500 (0:00:01.440)       0:02:16.417 ******* 
=============================================================================== 
he-yum-installs : check for Metacity rpm installed --------------------- 25.60s
Gathering Facts -------------------------------------------------------- 14.95s
he-yum-installs : install yum packages all ------------------------------ 9.07s
Gathering Facts --------------------------------------------------------- 6.80s
Gathering Facts --------------------------------------------------------- 6.32s
he-generate-installer-properties : Generate cm group_vars/all files ----- 4.98s
he-run-level : Switch to requested systemctl default -------------------- 3.93s
Gathering Facts --------------------------------------------------------- 3.53s
Gathering Facts --------------------------------------------------------- 3.34s
he-run-level : Is graphical currently active? --------------------------- 3.29s
he-create-sys-app-user : create sys_app_group --------------------------- 3.28s
Get the environments-config repository contents under /tmp/envs-config-j3SDnc from Bitbucket --- 3.21s
he-run-level : Switch to graphical -------------------------------------- 3.04s
Wait for hosts ---------------------------------------------------------- 2.58s
he-yum-installs : install yum packages group ---------------------------- 2.38s
he-create-sys-app-user : create sys_app_user & user's SSH key ----------- 1.44s
he-load-metadata : Do we have a override file for this environment? ----- 1.35s
he-generate-installer-properties : Create generated properties files directories --- 1.27s
he-load-metadata : do we have generic customer secrets file? ------------ 1.26s
he-load-metadata : Do we have a defaults.yml in the metadata locale ? --- 1.25s
Playbook run took 0 days, 0 hours, 2 minutes, 16 seconds
